Nummer,a,a_err,X_0,X_0_err,S,S_err,b,b_err,f,d,d_err
1,-39.96276339,16.61871589,98.91522802,6.519619657,165.0931694,50.77774195,74.5325347,17.01147345,,2.45,0.001
2,-11.34924576,1.327285268,74.16963907,7.625547769,-58.93196052,10.40463192,46.20494039,0.921708427,,3,0.001
3,34.44666064,0.219427497,169.4428519,0.149615618,17.03493632,0.143998535,36.7871446,0.05535027,,3.5,0.001
4,33.70628333,0.216263287,117.7590068,0.15039523,-17.06844307,0.145023293,36.78935481,0.054968053,,4,0.001
5,-16.41030892,1.617856163,234.5279089,7.086966877,84.59624697,12.9957731,50.90265165,1.655032569,,4.5,0.001
6,31.64604298,415.8155271,2040.479733,10037.10916,-793.7456583,2516.241571,3.745671409,1.865872665,,,
7,37.53066445,0.165311248,136.9533161,0.150799051,27.59466944,0.157702658,20.28049883,0.064035825,500,,
8,40.0532782,0.151055434,140.4178021,0.131758169,28.06750415,0.137505196,20.17835754,0.058877812,750,,
9,40.11761474,0.159529531,144.2219627,0.138630014,28.03711142,0.144480733,20.03296145,0.062028155,1000,,
10,40.2458641,0.170204585,148.1584893,0.146048742,27.7314844,0.151342271,20.22794332,0.065337505,1250,,
11,39.64952378,0.153873725,150.7444738,0.135163093,28.12598284,0.141124917,19.91556934,0.060054802,1500,,
12,38.15350147,0.151145359,153.8992173,0.138328989,28.33036545,0.145343481,19.90779148,0.059851178,1750,,
13,37.19484279,0.149090196,157.8757371,0.139650454,28.33642914,0.147000033,19.90022944,0.059293451,2000,,
14,35.21850242,0.14425323,160.8690617,0.141810403,28.40755781,0.150219027,19.80422662,0.057869581,2250,,
15,35.04739072,0.136710257,164.2346719,0.135419692,28.56546099,0.143762052,19.35949982,0.05514286,2500,,
16,33.83877386,0.131584804,167.5895196,0.136170314,29.15681363,0.146222788,19.46151215,0.0542746,2750,,
17,34.57192399,0.139849373,171.4719011,0.143045575,29.36102071,0.153652154,19.61520339,0.058018909,3000,,
18,35.15789454,0.141304533,175.4269062,0.145114895,30.0664096,0.157035815,19.53995187,0.059952992,3250,,
19,33.15780609,0.150334065,178.4723846,0.166301951,31.02934503,0.183321928,19.42057053,0.066182807,3500,,
20,29.78147957,0.14546021,181.9075283,0.172829385,30.16655784,0.190480643,19.38040847,0.062719035,3750,,
21,25.45799413,0.154928957,185.4717038,0.216271804,30.91840501,0.243209167,19.25914042,0.069121928,4000,,
22,29.04273522,0.15003993,189.0158289,0.189180472,31.60576137,0.212267606,19.27862508,0.067891939,4250,,
23,25.70567627,0.182947079,192.4073289,0.269013946,33.33227868,0.31031924,19.1390674,0.0879984,4500,,
24,6.94169696,0.142104745,197.5160372,0.690496721,30.7197312,0.799313567,18.96071228,0.064596514,4750,,
25,25.29326111,0.190053031,195.0717249,0.292687411,34.62820212,0.342892884,19.03790833,0.095224095,5000,,
26,28.31702312,0.157808972,195.0046015,0.207821466,32.43536353,0.235880609,19.20650292,0.073413421,4750,,
27,37.77417308,0.135581383,137.5138159,0.121893714,27.38245912,0.127005677,19.48057066,0.051958387,500,,
28,38.51584236,0.134703394,144.2681433,0.121649813,28.20456084,0.127765421,19.92073141,0.052972976,1000,,
29,39.93853954,0.144462896,151.4130352,0.12521369,27.88936906,0.130205314,19.87799087,0.055814459,1500,,
30,36.73715892,0.132502276,156.9727187,0.127569526,28.96573195,0.135527709,19.7172862,0.053953167,2000,,
31,33.84180746,0.134356508,164.3145253,0.136105739,28.3374484,0.144858515,19.66685052,0.053920455,2500,,
32,34.5555553,0.141190888,171.4706229,0.142817675,28.91500971,0.152742924,19.6844603,0.05770613,3000,,
33,31.62182893,0.161443259,179.7772003,0.180058731,29.77667851,0.196465046,19.5933162,0.068394036,3500,,
34,29.45466178,0.17550496,186.0610581,0.215652051,31.10095872,0.240592548,19.45535803,0.078052614,4000,,
35,14.30942537,0.165555751,192.5007629,0.418529036,32.78862923,0.489947506,19.14283256,0.079603562,4500,,
36,5.800218439,0.166599036,197.7894026,0.965555017,30.64087688,1.11824743,18.97574375,0.07561432,5000,,
37,24.90708689,0.211553884,193.4329258,0.337356145,35.50245934,0.399742067,19.13279227,0.109021427,5000,,
38,38.70388441,0.153328453,144.6163829,0.137085371,27.9478772,0.143193842,19.83104062,0.059744136,1000,,
39,37.45347871,0.159497374,157.9579087,0.149400806,28.53677266,0.157570859,19.76603624,0.063850087,2000,,
40,35.15591448,0.161828415,171.6512711,0.163341144,29.3639455,0.175377608,19.69414384,0.067083577,3000,,
41,32.89827475,0.17772564,185.1708798,0.200207416,31.4543937,0.222083754,19.53379828,0.07942563,4000,,
42,32.81122455,0.185223774,194.0903994,0.217404516,33.04921593,0.245588864,19.41584639,0.087164732,5000,,
