Nummer,a,a_err,X_0,X_0_err,S,S_err,b,b_err,f,d,d_err
1,-35.25307781,12.17533124,111.0997666,5.3122983,142.7955056,37.94604362,51.53051216,12.56636687,,2.45,0.001
2,-9.938530035,1.38681394,86.77281365,7.751772531,-55.48340332,10.62521363,27.40175827,0.959014638,,3,0.001
3,31.7451967,0.310474236,168.5102394,0.221931456,16.74195766,0.217441724,19.0367572,0.078305959,,3.5,0.001
4,35.11167051,0.391912901,116.8344216,0.25828726,16.64434617,0.248302227,18.51407298,0.096232816,,4,0.001
5,-19.1920193,1.731743348,229.4321698,5.906605582,84.67447423,11.41365243,34.46015104,1.790683867,,4.5,0.001
6,2.922595031,0.087132164,172.6293219,0.602682608,17.87592465,0.642435681,12.08153621,0.026057683,,,
7,37.55831132,0.144194617,134.4382376,0.127504966,26.43619544,0.131178148,2.428829283,0.053621528,500,,
8,39.76685505,0.113627354,137.9612708,0.097275318,27.05991862,0.099979448,2.370734286,0.042816442,750,,
9,39.4774209,0.114169426,141.779606,0.098427753,27.18295889,0.101444461,2.249921601,0.043187306,1000,,
10,39.2273913,0.124827912,145.789546,0.107498221,27.06708555,0.110795416,2.461450406,0.046959759,1250,,
11,38.37080487,0.103764397,148.3776268,0.092292308,27.61215478,0.096264241,2.156830704,0.039907327,1500,,
12,36.58141226,0.079845861,151.533563,0.07487948,27.97928351,0.078934585,2.160300186,0.031358311,1750,,
13,35.27560822,0.071847824,155.6376284,0.070061426,28.21951386,0.074353497,2.156425895,0.028605765,2000,,
14,33.061438,0.072608968,158.7127979,0.075407693,28.4664232,0.080755106,2.066045951,0.029364457,2250,,
15,32.67211256,0.069167834,162.3189701,0.073224047,28.79277499,0.078769116,1.625440611,0.028318103,2500,,
16,31.3161779,0.067346612,165.9007621,0.075295569,29.50566257,0.082000967,1.745369685,0.028318719,2750,,
17,31.9362417,0.067882203,170.1692738,0.075210587,29.74514381,0.081937565,1.918542823,0.02875874,3000,,
18,32.50053801,0.070870324,174.4938945,0.078675478,30.41242929,0.086258166,1.872779222,0.030653309,3250,,
19,30.5275641,0.083601881,177.7853264,0.10030779,31.34756065,0.111889894,1.783444503,0.037437823,3500,,
20,27.18905535,0.064483576,181.6079668,0.083314022,30.27541057,0.092647523,1.773200983,0.028067592,3750,,
21,22.953038,0.067073898,185.5966317,0.102614362,30.82027326,0.116021285,1.689624101,0.029965154,4000,,
22,26.69407742,0.053819509,189.3394727,0.072325741,31.19262551,0.081288851,1.754155439,0.024127334,4250,,
23,23.43336562,0.090609621,193.0569853,0.142770914,32.71894199,0.164418779,1.652600921,0.042891531,4500,,
25,23.10991808,0.104502201,195.9051661,0.171294597,33.77211619,0.199675915,1.593801018,0.051131458,5000,,
26,26.2279533,0.066944937,195.7634758,0.092038484,31.45151266,0.103828672,1.749162668,0.030281419,4750,,
27,37.77314361,0.167009047,135.043383,0.145745893,26.2398333,0.149379167,1.629504382,0.061486943,500,,
28,37.84813445,0.119009786,141.7405159,0.106738881,27.3440955,0.110877549,2.135250859,0.045539256,1000,,
29,38.60246686,0.112500599,149.0915518,0.098910121,27.41412235,0.102843264,2.117024835,0.042894037,1500,,
30,34.88962008,0.081954466,154.643461,0.082056888,28.84161847,0.087812795,1.969364073,0.033384687,2000,,
31,31.46628538,0.076671982,162.3621498,0.083190657,28.55425176,0.089677717,1.935570876,0.03121552,2500,,
32,31.91145451,0.079240821,170.1839644,0.086787019,29.27862183,0.094125757,1.986382284,0.033058079,3000,,
33,28.97878827,0.075006585,179.2651737,0.090850126,29.98105167,0.100184754,1.964496315,0.032209009,3500,,
34,26.97736931,0.082742773,186.1242873,0.109534061,30.975783,0.122886564,1.89187922,0.03682595,4000,,
35,12.02923594,0.077177128,194.3702128,0.223102164,31.52340665,0.258798426,1.655332582,0.035785196,4500,,
37,22.63988947,0.124044584,194.1249952,0.213004371,34.90159685,0.251829136,1.679221381,0.062905419,5000,,
38,38.00743792,0.124242166,142.112988,0.110424903,27.10772131,0.114164469,2.044294894,0.047141357,1000,,
39,35.49707516,0.099626771,155.7368297,0.097424396,28.49535138,0.103714932,2.011957704,0.040040264,2000,,
40,32.52186327,0.091096042,170.3801131,0.099409133,29.7325254,0.108238696,2.000724612,0.038546775,3000,,
41,30.4183359,0.082869738,185.0845175,0.099741219,31.38736048,0.111367711,1.967638938,0.037138938,4000,,
42,30.67206296,0.081451201,194.5749627,0.099524483,32.31228649,0.112064265,1.958532632,0.037557741,5000,,
